{
  "name": "app-web",
  "$schema": "../../../node_modules/nx/schemas/project-schema.json",
  "projectType": "application",
  "sourceRoot": "apps/app/web/src",
  "prefix": "nx-standalone",
  "targets": {
    "build": {
      "builder": "@angular-devkit/build-angular:browser-esbuild",
      "executor": "@angular-devkit/build-angular:browser",
      "outputs": [
        "{options.outputPath}"
      ],
      "options": {
        "outputPath": "dist/apps/app/web",
        "index": "apps/app/web/src/index.html",
        "main": "apps/app/web/src/main.ts",
        "polyfills": [
          "zone.js"
        ],
        "tsConfig": "apps/app/web/tsconfig.app.json",
        "assets": [
          "apps/app/web/src/favicon.ico",
          "apps/app/web/src/assets"
        ],
        "styles": [
          "apps/app/web/src/styles.css",
          "./node_modules/@angular/material/prebuilt-themes/indigo-pink.css"
        ],
        "scripts": []
      },
      "configurations": {
        "production": {
          "budgets": [
            {
              "type": "initial",
              "maximumWarning": "500kb",
              "maximumError": "1mb"
            },
            {
              "type": "anyComponentStyle",
              "maximumWarning": "2kb",
              "maximumError": "4kb"
            }
          ],
          "outputHashing": "all"
        },
        "development": {
          "buildOptimizer": false,
          "optimization": false,
          "vendorChunk": true,
          "extractLicenses": false,
          "sourceMap": true,
          "namedChunks": true
        }
      },
      "defaultConfiguration": "production"
    },
    "serve": {
      "executor": "@angular-devkit/build-angular:dev-server",
      "configurations": {
        "production": {
          "browserTarget": "app-web:build:production"
        },
        "development": {
          "browserTarget": "app-web:build:development"
        }
      },
      "defaultConfiguration": "development",
      "options": {
        "port": 4300
      }
    },
    "extract-i18n": {
      "executor": "@angular-devkit/build-angular:extract-i18n",
      "options": {
        "browserTarget": "app-web:build"
      }
    },
    "lint": {
      "executor": "@nrwl/linter:eslint",
      "outputs": [
        "{options.outputFile}"
      ],
      "options": {
        "lintFilePatterns": [
          "apps/app/web/**/*.ts",
          "apps/app/web/**/*.html"
        ]
      }
    },
    "test": {
      "executor": "@nrwl/jest:jest",
      "outputs": [
        "{workspaceRoot}/coverage/{projectRoot}"
      ],
      "options": {
        "jestConfig": "apps/app/web/jest.config.ts",
        "passWithNoTests": true
      }
    }
  },
  "tags": []
}